Randomization Tests
…
## Steps

1.Shuffle the 48 personnel files.   
2.Deal the 48 files into to two stacks. Stack 1 will have 35 files that represent the promoted files. Stack 2 will have 13 files that are not promoted.  
3.Calculate the differences in promotion rates of males and females.   
4.Repeat this process multiple times.

---

```r
gender_discrimination
```

```
## # A tibble: 48 x 2
##    gender decision
##    <fct>  <fct>   
##  1 male   promoted
##  2 male   promoted
##  3 male   promoted
##  4 male   promoted
##  5 male   promoted
##  6 male   promoted
##  7 male   promoted
##  8 male   promoted
##  9 male   promoted
## 10 male   promoted
## # … with 38 more rows
```
…
```r
set.seed(12345)
gender_discrimination$simulated_decision <-
  sample(gender_discrimination$decision)
```

---

```r
gender_discrimination
```

```
## # A tibble: 48 x 3
##    gender decision simulated_decision
##    <fct>  <fct>    <fct>             
##  1 male   promoted promoted          
##  2 male   promoted promoted          
##  3 male   promoted promoted          
##  4 male   promoted promoted          
##  5 male   promoted not promoted      
##  6 male   promoted promoted          
##  7 male   promoted promoted          
##  8 male   promoted promoted          
##  9 male   promoted not promoted      
## 10 male   promoted promoted          
## # … with 38 more rows
```
…
